{
    "name": "Ticket",
    "fields": [
        {
            "fieldName": "title",
            "fieldType": "String",
            "fieldValidateRules": [
                "required"
            ]
        },
        {
            "fieldName": "description",
            "fieldType": "String"
        },
        {
            "fieldName": "dueDate",
            "fieldType": "LocalDate"
        },
        {
            "fieldName": "done",
            "fieldType": "Boolean"
        }
    ],
    "relationships": [
        {
            "relationshipType": "many-to-one",
            "otherEntityName": "project",
            "otherEntityRelationshipName": "ticket",
            "relationshipName": "project",
            "otherEntityField": "name"
        },
        {
            "relationshipType": "many-to-one",
            "otherEntityName": "user",
            "otherEntityRelationshipName": "ticket",
            "relationshipName": "assignedTo",
            "otherEntityField": "login"
        },
        {
            "relationshipType": "many-to-many",
            "otherEntityName": "label",
            "otherEntityRelationshipName": "ticket",
            "relationshipName": "label",
            "otherEntityField": "label",
            "ownerSide": true
        }
    ],
    "changelogDate": "20200219190600",
    "entityTableName": "ticket",
    "dto": "no",
    "pagination": "pagination",
    "service": "no",
    "jpaMetamodelFiltering": false,
    "fluentMethods": true,
    "readOnly": false,
    "clientRootFolder": "",
    "applications": "*"
}